<svg width="80" height="80" viewBox="0 0 80 80" fill="none" xmlns="http://www.w3.org/2000/svg">
<g clip-path="url(#clip0)">
<path d="M51.3209 37.8808L40.9806 29.4202C40.4098 28.9532 39.5889 28.9532 39.0181 29.4202L28.6776 37.8808C28.3179 38.1751 28.1094 38.6153 28.1094 39.0799V54.1547C28.1094 55.0105 28.8031 55.7041 29.6588 55.7041H35.96V46.9038C35.96 46.2762 36.4688 45.7674 37.0964 45.7674H42.9023C43.5298 45.7674 44.0385 46.2761 44.0385 46.9038V55.7043H50.3398C51.1956 55.7043 51.8892 55.0105 51.8892 54.1549V39.0799C51.8891 38.6152 51.6805 38.1751 51.3209 37.8808Z" fill="white"/>
<path d="M55.9953 36.8031C55.9918 36.3137 55.7671 35.8524 55.3841 35.5478L42.2059 25.0738C41.5681 24.556 40.7883 24.2969 40.0082 24.2962C40.0056 24.2962 40.0031 24.296 40.0005 24.296C39.9931 24.296 39.9857 24.2964 39.9782 24.2965C39.2027 24.3002 38.4282 24.559 37.794 25.0738L24.6159 35.5479C24.2328 35.8524 24.0081 36.3138 24.0046 36.8032C24.0046 36.8097 24 37.4537 24 38.0149C24 38.9086 24.7245 39.633 25.6181 39.633C26.5118 39.633 27.2363 38.9086 27.2363 38.0149C27.2363 37.8772 27.2366 37.7349 27.237 37.5987L39.0103 28.2412C39.0103 28.2412 39.4822 27.889 40 27.889C40.5178 27.889 40.9812 28.2345 40.9812 28.2345L52.7629 37.5987C52.7634 37.7349 52.7637 37.8772 52.7637 38.0149C52.7637 38.9086 53.4882 39.633 54.3819 39.633C55.2755 39.633 56 38.9086 56 38.0149C56 37.4537 55.9954 36.8096 55.9953 36.8031Z" fill="white"/>
</g>
<defs>
<clipPath id="clip0">
<rect width="32" height="32" fill="white" transform="translate(24 24)"/>
</clipPath>
</defs>
</svg>
