<svg width="52" height="52" viewBox="0 0 52 52" fill="none" xmlns="http://www.w3.org/2000/svg">
<path fill-rule="evenodd" clip-rule="evenodd" d="M37.6805 32.8743L28.0411 16.1785C27.6151 15.4406 26.8521 15 26 15C25.1479 15 24.3848 15.4405 23.9588 16.1785L14.3196 32.8743C13.8935 33.6121 13.8935 34.4932 14.3196 35.2312C14.7457 35.9691 15.5086 36.4097 16.3607 36.4097H35.6395C36.4915 36.4097 37.2545 35.9691 37.6805 35.2313C38.1065 34.4933 38.1065 33.6122 37.6805 32.8743ZM25.9995 33.6937C25.1535 33.6937 24.4653 33.0055 24.4653 32.1595C24.4653 31.3136 25.1535 30.6254 25.9995 30.6254C26.8454 30.6254 27.5337 31.3136 27.5337 32.1595C27.5336 33.0056 26.8453 33.6937 25.9995 33.6937ZM26.0014 28.68C26.853 28.68 27.5459 27.9871 27.5459 27.1355H27.546V20.0468C27.546 19.6428 27.2185 19.3152 26.8144 19.3152H25.1885C24.7844 19.3152 24.4569 19.6428 24.4569 20.0468V27.1355C24.4569 27.9871 25.1498 28.68 26.0014 28.68Z" fill="#F07F66"/>
<rect x="1" y="1" width="50" height="50" rx="8" stroke="#F07F66"/>
</svg>
