<svg width="15" height="9" viewBox="0 0 15 9" fill="none" xmlns="http://www.w3.org/2000/svg">
<path fill-rule="evenodd" clip-rule="evenodd" d="M14.485 7.06999L7.415 -1.43051e-05L7.243 0.169986L7.071 -1.43051e-05L0 7.06899L1.414 8.48499L7.243 2.65699L13.07 8.48499L14.484 7.06999H14.485Z" fill="#0F9FD6"/>
</svg>
