<svg width="32" height="29" viewBox="0 0 32 29" fill="none" xmlns="http://www.w3.org/2000/svg">
<path fill-rule="evenodd" clip-rule="evenodd" d="M31.5739 23.8323L18.7215 1.57134C18.1535 0.587513 17.1361 0 16 0C14.8638 0 13.8464 0.587383 13.2784 1.57134L0.4261 23.8323C-0.142033 24.8162 -0.142033 25.9909 0.4261 26.9749C0.994233 27.9588 2.01149 28.5462 3.14763 28.5462H28.8527C29.9887 28.5462 31.0061 27.9588 31.5741 26.975C32.1421 25.9911 32.1419 24.8163 31.5739 23.8323ZM15.9987 24.9249C14.8707 24.9249 13.9531 24.0073 13.9531 22.8793C13.9531 21.7515 14.8707 20.8339 15.9987 20.8339C17.1266 20.8339 18.0443 21.7515 18.0443 22.8793C18.0441 24.0074 17.1265 24.9249 15.9987 24.9249ZM16.0021 18.24C17.1375 18.24 18.0614 17.3162 18.0614 16.1807H18.0615V6.72908C18.0615 6.19035 17.6249 5.75358 17.086 5.75358H14.9182C14.3795 5.75358 13.9427 6.19035 13.9427 6.72908V16.1807C13.9427 17.3162 14.8666 18.24 16.0021 18.24Z" fill="#F07F66"/>
</svg>
