<svg width="12" height="14" viewBox="0 0 12 14" fill="none" xmlns="http://www.w3.org/2000/svg">
<path d="M11.66 6.38961L0.993333 0.0896267C0.786667 -0.0321731 0.534667 -0.0293731 0.330667 0.0952267C0.125333 0.221226 0 0.450826 0 0.700025V13.3C0 13.5492 0.125333 13.7788 0.330667 13.9048C0.434667 13.9678 0.550667 14 0.666667 14C0.778667 14 0.892 13.9706 0.993333 13.9104L11.66 7.61041C11.8693 7.48581 12 7.25341 12 7.00001C12 6.74661 11.8693 6.51421 11.66 6.38961Z" fill="#465B77"/>
</svg>
